module github.com/Mic92/docker-pid

go 1.15

require (
	github.com/Microsoft/go-winio v0.4.16 // indirect
	github.com/containerd/containerd v1.4.3 // indirect
	github.com/docker/distribution v2.7.1+incompatible // indirect
	github.com/docker/docker v20.10.1+incompatible // indirect
	github.com/docker/go-connections v0.4.0 // indirect
	github.com/docker/go-units v0.4.0 // indirect
	github.com/gogo/protobuf v1.3.1 // indirect
	github.com/gorilla/mux v1.8.0 // indirect
	github.com/moby/moby v20.10.14+incompatible
	github.com/moby/term v0.0.0-20201216013528-df9cb8a40635 // indirect
	github.com/morikuni/aec v1.0.0 // indirect
	github.com/opencontainers/go-digest v1.0.0 // indirect
	github.com/opencontainers/image-spec v1.0.1 // indirect
	github.com/sirupsen/logrus v1.7.0 // indirect
	golang.org/x/net v0.0.0-20201216054612-986b41b23924 // indirect
	golang.org/x/time v0.0.0-20201208040808-7e3f01d25324 // indirect
	google.golang.org/grpc v1.34.0 // indirect
	gotest.tools/v3 v3.0.3 // indirect
)
